packages/dspedal/dspedal-0.0.1.tar.gz/dspedal-0.0.1/ext/verilator/test_regress/t/t_forceable_var_trace.vcd
$version Generated by VerilatedVcd $end
$timescale 1ps $end
 $scope module top $end
  $var wire 1 # clk $end
  $var wire 1 $ rst $end
  $var wire 32 % cyc [31:0] $end
  $scope module t $end
   $var wire 1 # clk $end
   $var wire 1 $ rst $end
   $var wire 32 % cyc [31:0] $end
   $var wire 1 & tmp_1 $end
   $var wire 8 ' tmp_8 [7:0] $end
   $var wire 1 ( var_1 $end
   $var wire 8 ) var_8 [7:0] $end
   $var wire 1 ( obs_1 $end
   $var wire 8 ) obs_8 [7:0] $end
  $upscope $end
 $upscope $end
$enddefinitions $end


#0
0#
1$
b00000000000000000000000000000000 %
0&
b00000000 '
0(
b00000000 )
#5
1#
0$
#10
0#
#15
1#
b00000000000000000000000000000001 %
#20
0#
#25
1#
b00000000000000000000000000000010 %
1&
1(
#30
0#
#35
1#
b00000000000000000000000000000011 %
0&
b00000001 '
0(
b00000001 )
#40
0#
#45
1#
b00000000000000000000000000000100 %
1&
1(
#50
0#
#55
1#
b00000000000000000000000000000101 %
0&
b00000010 '
0(
b00000010 )
#60
0#
#65
1#
b00000000000000000000000000000110 %
1&
1(
#70
0#
#75
1#
b00000000000000000000000000000111 %
0&
b00000011 '
0(
b00000011 )
#80
0#
#85
1#
b00000000000000000000000000001000 %
1&
1(
#90
0#
#95
1#
b00000000000000000000000000001001 %
0&
b00000100 '
0(
b00000100 )
#100
0#
#105
1#
b00000000000000000000000000001010 %
1&
1(
#110
0#
#115
1#
b00000000000000000000000000001011 %
0&
b00000101 '
0(
b00000101 )
#120
0#
#125
1#
b00000000000000000000000000001100 %
1&
1(
#130
0#
#135
1#
b00000000000000000000000000001101 %
0&
b00000110 '
b00000110 )
#140
0#
#145
1#
b00000000000000000000000000001110 %
1&
b11110101 )
#150
0#
#155
1#
b00000000000000000000000000001111 %
0&
b00000111 '
0(
#160
0#
#165
1#
b00000000000000000000000000010000 %
1&
b01011111 )
#170
0#
#175
1#
b00000000000000000000000000010001 %
0&
b00001000 '
#180
0#
#185
1#
b00000000000000000000000000010010 %
1&
1(
#190
0#
#195
1#
b00000000000000000000000000010011 %
0&
b00001001 '
0(
b00001001 )
#200
0#
#205
1#
b00000000000000000000000000010100 %
1&
1(
b01011010 )
#210
0#
#215
1#
b00000000000000000000000000010101 %
0&
b00001010 '
#220
0#
#225
1#
b00000000000000000000000000010110 %
1&
0(
b10100101 )
#230
0#
#235
1#
b00000000000000000000000000010111 %
0&
b00001011 '
#240
0#
#245
1#
b00000000000000000000000000011000 %
1&
1(
b00001011 )
#250
0#
#255
1#
b00000000000000000000000000011001 %
0&
b00001100 '
0(
b00001100 )
#260
0#
#265
1#
b00000000000000000000000000011010 %
1&
1(
#270
0#
#275
1#
b00000000000000000000000000011011 %
0&
b00001101 '
0(
b00001101 )
#280
0#
#285
1#
b00000000000000000000000000011100 %
1&
1(
#290
0#
#295
1#
b00000000000000000000000000011101 %
0&
b00001110 '
0(
b00001110 )
#300
0#
#305
1#
b00000000000000000000000000011110 %
1&
1(
#310
0#
#315
1#
b00000000000000000000000000011111 %
0&
b00001111 '
0(
b00001111 )
